^C:\USERS\FOVERTON\DESKTOP\OVERTON-FRANKLIN-ALGORITHMEFFICIENCYLAB\OVERTON-FRANKLIN-ALGORITHMEFFICIENCYLAB\DEBUG\MAIN.OBJ
/OUT:"C:\USERS\FOVERTON\DESKTOP\OVERTON-FRANKLIN-ALGORITHMEFFICIENCYLAB\DEBUG\OVERTON-FRANKLIN-ALGORITHMEFFICIENCYLAB.EXE" /INCREMENTAL /NOLOGO KERNEL32.LIB USER32.LIB GDI32.LIB WINSPOOL.LIB COMDLG32.LIB ADVAPI32.LIB SHELL32.LIB OLE32.LIB OLEAUT32.LIB UUID.LIB ODBC32.LIB ODBCCP32.LIB /MANIFEST /MANIFESTUAC:"level='asInvoker' uiAccess='false'" /manifest:embed /DEBUG:FASTLINK /PDB:"C:\USERS\FOVERTON\DESKTOP\OVERTON-FRANKLIN-ALGORITHMEFFICIENCYLAB\DEBUG\OVERTON-FRANKLIN-ALGORITHMEFFICIENCYLAB.PDB" /TLBID:1 /DYNAMICBASE /NXCOMPAT /IMPLIB:"C:\USERS\FOVERTON\DESKTOP\OVERTON-FRANKLIN-ALGORITHMEFFICIENCYLAB\DEBUG\OVERTON-FRANKLIN-ALGORITHMEFFICIENCYLAB.LIB" /MACHINE:X86 DEBUG\MAIN.OBJ
^E:\CS 250\WEEK 6\OVERTON-FRANKLIN-ALGORITHMEFFICIENCYLAB\OVERTON-FRANKLIN-ALGORITHMEFFICIENCYLAB\DEBUG\MAIN.OBJ
/OUT:"E:\CS 250\WEEK 6\OVERTON-FRANKLIN-ALGORITHMEFFICIENCYLAB\DEBUG\OVERTON-FRANKLIN-ALGORITHMEFFICIENCYLAB.EXE" /INCREMENTAL /NOLOGO KERNEL32.LIB USER32.LIB GDI32.LIB WINSPOOL.LIB COMDLG32.LIB ADVAPI32.LIB SHELL32.LIB OLE32.LIB OLEAUT32.LIB UUID.LIB ODBC32.LIB ODBCCP32.LIB /MANIFEST /MANIFESTUAC:"level='asInvoker' uiAccess='false'" /manifest:embed /DEBUG:FASTLINK /PDB:"E:\CS 250\WEEK 6\OVERTON-FRANKLIN-ALGORITHMEFFICIENCYLAB\DEBUG\OVERTON-FRANKLIN-ALGORITHMEFFICIENCYLAB.PDB" /TLBID:1 /DYNAMICBASE /NXCOMPAT /IMPLIB:"E:\CS 250\WEEK 6\OVERTON-FRANKLIN-ALGORITHMEFFICIENCYLAB\DEBUG\OVERTON-FRANKLIN-ALGORITHMEFFICIENCYLAB.LIB" /MACHINE:X86 DEBUG\MAIN.OBJ
