^E:\CS 250\WEEK 10\FRANKLINOVERTONPROJECTBINARYSEARCHTRESS\CARPROGRAM.CPP|E:\CS 250\WEEK 10\FRANKLINOVERTONPROJECTBINARYSEARCHTRESS\CUTEST\TESTERBASE.CPP|E:\CS 250\WEEK 10\FRANKLINOVERTONPROJECTBINARYSEARCHTRESS\MAIN.CPP
E:\CS 250\WEEK 10\FRANKLINOVERTONPROJECTBINARYSEARCHTRESS\PROJECTBINARYSEARCHTRESS\DEBUG\VC141.PDB
E:\CS 250\WEEK 10\FRANKLINOVERTONPROJECTBINARYSEARCHTRESS\PROJECTBINARYSEARCHTRESS\DEBUG\VC141.IDB
E:\CS 250\WEEK 10\FRANKLINOVERTONPROJECTBINARYSEARCHTRESS\PROJECTBINARYSEARCHTRESS\DEBUG\CARPROGRAM.OBJ
E:\CS 250\WEEK 10\FRANKLINOVERTONPROJECTBINARYSEARCHTRESS\PROJECTBINARYSEARCHTRESS\DEBUG\TESTERBASE.OBJ
E:\CS 250\WEEK 10\FRANKLINOVERTONPROJECTBINARYSEARCHTRESS\PROJECTBINARYSEARCHTRESS\DEBUG\MAIN.OBJ
^E:\CS 250\WEEK 10\FRANKLINOVERTONPROJECTBINARYSEARCHTRESS\CARPROGRAM.CPP
E:\CS 250\WEEK 10\FRANKLINOVERTONPROJECTBINARYSEARCHTRESS\PROJECTBINARYSEARCHTRESS\DEBUG\VC141.PDB
E:\CS 250\WEEK 10\FRANKLINOVERTONPROJECTBINARYSEARCHTRESS\PROJECTBINARYSEARCHTRESS\DEBUG\VC141.IDB
E:\CS 250\WEEK 10\FRANKLINOVERTONPROJECTBINARYSEARCHTRESS\PROJECTBINARYSEARCHTRESS\DEBUG\CARPROGRAM.OBJ
^E:\CS 250\WEEK 10\FRANKLINOVERTONPROJECTBINARYSEARCHTRESS\CUTEST\TESTERBASE.CPP
E:\CS 250\WEEK 10\FRANKLINOVERTONPROJECTBINARYSEARCHTRESS\PROJECTBINARYSEARCHTRESS\DEBUG\VC141.PDB
^E:\CS 250\WEEK 10\FRANKLINOVERTONPROJECTBINARYSEARCHTRESS\MAIN.CPP
E:\CS 250\WEEK 10\FRANKLINOVERTONPROJECTBINARYSEARCHTRESS\PROJECTBINARYSEARCHTRESS\DEBUG\VC141.PDB
^E:\CS 250\WEEK 10\FRANKLINOVERTONPROJECTBINARYSEARCHTRESS\CARPROGRAM.CPP|E:\CS 250\WEEK 10\FRANKLINOVERTONPROJECTBINARYSEARCHTRESS\MAIN.CPP
E:\CS 250\WEEK 10\FRANKLINOVERTONPROJECTBINARYSEARCHTRESS\PROJECTBINARYSEARCHTRESS\DEBUG\VC141.PDB
E:\CS 250\WEEK 10\FRANKLINOVERTONPROJECTBINARYSEARCHTRESS\PROJECTBINARYSEARCHTRESS\DEBUG\VC141.IDB
E:\CS 250\WEEK 10\FRANKLINOVERTONPROJECTBINARYSEARCHTRESS\PROJECTBINARYSEARCHTRESS\DEBUG\CARPROGRAM.OBJ
E:\CS 250\WEEK 10\FRANKLINOVERTONPROJECTBINARYSEARCHTRESS\PROJECTBINARYSEARCHTRESS\DEBUG\MAIN.OBJ
