Doing my homework!

---------------------------------------------------------
DAY: 0

Processing task 2... 

ID   DUE ON    REMAINING      FINISHED DAY        OVERDUE   
0    15        6                                            
1    37        2                                            
2    13        4                                             <<       
3    13        1                                            
4    39        15                                           
5    17        5                                            
6    24        9                                            
7    29        11                                           
8    18        5                                            
9    18        7                                            


---------------------------------------------------------
DAY: 1

Processing task 2... 

ID   DUE ON    REMAINING      FINISHED DAY        OVERDUE   
0    15        6                                            
1    37        2                                            
2    13        3                                             <<       
3    13        1                                            
4    39        15                                           
5    17        5                                            
6    24        9                                            
7    29        11                                           
8    18        5                                            
9    18        7                                            


---------------------------------------------------------
DAY: 2

Processing task 2... 

ID   DUE ON    REMAINING      FINISHED DAY        OVERDUE   
0    15        6                                            
1    37        2                                            
2    13        2                                             <<       
3    13        1                                            
4    39        15                                           
5    17        5                                            
6    24        9                                            
7    29        11                                           
8    18        5                                            
9    18        7                                            


---------------------------------------------------------
DAY: 3

Processing task 2... 

ID   DUE ON    REMAINING      FINISHED DAY        OVERDUE   
0    15        6                                            
1    37        2                                            
2    13        1                                             <<       
3    13        1                                            
4    39        15                                           
5    17        5                                            
6    24        9                                            
7    29        11                                           
8    18        5                                            
9    18        7                                            


---------------------------------------------------------
DAY: 4

Processing task 2... done!

ID   DUE ON    REMAINING      FINISHED DAY        OVERDUE   
0    15        6                                            
1    37        2                                            
2    13        0              4                             
3    13        1                                             <<       
4    39        15                                           
5    17        5                                            
6    24        9                                            
7    29        11                                           
8    18        5                                            
9    18        7                                            


---------------------------------------------------------
DAY: 5

Processing task 3... done!

ID   DUE ON    REMAINING      FINISHED DAY        OVERDUE   
0    15        6                                             <<       
1    37        2                                            
2    13        0              4                             
3    13        0              5                             
4    39        15                                           
5    17        5                                            
6    24        9                                            
7    29        11                                           
8    18        5                                            
9    18        7                                            


---------------------------------------------------------
DAY: 6

Processing task 0... 

ID   DUE ON    REMAINING      FINISHED DAY        OVERDUE   
0    15        5                                             <<       
1    37        2                                            
2    13        0              4                             
3    13        0              5                             
4    39        15                                           
5    17        5                                            
6    24        9                                            
7    29        11                                           
8    18        5                                            
9    18        7                                            


---------------------------------------------------------
DAY: 7

Processing task 0... 

ID   DUE ON    REMAINING      FINISHED DAY        OVERDUE   
0    15        4                                             <<       
1    37        2                                            
2    13        0              4                             
3    13        0              5                             
4    39        15                                           
5    17        5                                            
6    24        9                                            
7    29        11                                           
8    18        5                                            
9    18        7                                            


---------------------------------------------------------
DAY: 8

Processing task 0... 

ID   DUE ON    REMAINING      FINISHED DAY        OVERDUE   
0    15        3                                             <<       
1    37        2                                            
2    13        0              4                             
3    13        0              5                             
4    39        15                                           
5    17        5                                            
6    24        9                                            
7    29        11                                           
8    18        5                                            
9    18        7                                            


---------------------------------------------------------
DAY: 9

Processing task 0... 

ID   DUE ON    REMAINING      FINISHED DAY        OVERDUE   
0    15        2                                             <<       
1    37        2                                            
2    13        0              4                             
3    13        0              5                             
4    39        15                                           
5    17        5                                            
6    24        9                                            
7    29        11                                           
8    18        5                                            
9    18        7                                            


---------------------------------------------------------
DAY: 10

Processing task 0... 

ID   DUE ON    REMAINING      FINISHED DAY        OVERDUE   
0    15        1                                             <<       
1    37        2                                            
2    13        0              4                             
3    13        0              5                             
4    39        15                                           
5    17        5                                            
6    24        9                                            
7    29        11                                           
8    18        5                                            
9    18        7                                            


---------------------------------------------------------
DAY: 11

Processing task 0... done!

ID   DUE ON    REMAINING      FINISHED DAY        OVERDUE   
0    15        0              11                            
1    37        2                                            
2    13        0              4                             
3    13        0              5                             
4    39        15                                           
5    17        5                                             <<       
6    24        9                                            
7    29        11                                           
8    18        5                                            
9    18        7                                            


---------------------------------------------------------
DAY: 12

Processing task 5... 

ID   DUE ON    REMAINING      FINISHED DAY        OVERDUE   
0    15        0              11                            
1    37        2                                            
2    13        0              4                             
3    13        0              5                             
4    39        15                                           
5    17        4                                             <<       
6    24        9                                            
7    29        11                                           
8    18        5                                            
9    18        7                                            


---------------------------------------------------------
DAY: 13

Processing task 5... 

ID   DUE ON    REMAINING      FINISHED DAY        OVERDUE   
0    15        0              11                            
1    37        2                                            
2    13        0              4                             
3    13        0              5                             
4    39        15                                           
5    17        3                                             <<       
6    24        9                                            
7    29        11                                           
8    18        5                                            
9    18        7                                            


---------------------------------------------------------
DAY: 14

Processing task 5... 

ID   DUE ON    REMAINING      FINISHED DAY        OVERDUE   
0    15        0              11                            
1    37        2                                            
2    13        0              4                             
3    13        0              5                             
4    39        15                                           
5    17        2                                             <<       
6    24        9                                            
7    29        11                                           
8    18        5                                            
9    18        7                                            


---------------------------------------------------------
DAY: 15

Processing task 5... 

ID   DUE ON    REMAINING      FINISHED DAY        OVERDUE   
0    15        0              11                            
1    37        2                                            
2    13        0              4                             
3    13        0              5                             
4    39        15                                           
5    17        1                                             <<       
6    24        9                                            
7    29        11                                           
8    18        5                                            
9    18        7                                            


---------------------------------------------------------
DAY: 16

Processing task 5... done!

ID   DUE ON    REMAINING      FINISHED DAY        OVERDUE   
0    15        0              11                            
1    37        2                                            
2    13        0              4                             
3    13        0              5                             
4    39        15                                           
5    17        0              16                            
6    24        9                                            
7    29        11                                           
8    18        5                                             <<       
9    18        7                                            


---------------------------------------------------------
DAY: 17

Processing task 8... 

ID   DUE ON    REMAINING      FINISHED DAY        OVERDUE   
0    15        0              11                            
1    37        2                                            
2    13        0              4                             
3    13        0              5                             
4    39        15                                           
5    17        0              16                            
6    24        9                                            
7    29        11                                           
8    18        4                                             <<       
9    18        7                                            


---------------------------------------------------------
DAY: 18

Processing task 8... 

ID   DUE ON    REMAINING      FINISHED DAY        OVERDUE   
0    15        0              11                            
1    37        2                                            
2    13        0              4                             
3    13        0              5                             
4    39        15                                           
5    17        0              16                            
6    24        9                                            
7    29        11                                           
8    18        3                                             <<       
9    18        7                                            


---------------------------------------------------------
DAY: 19

Processing task 8... 

ID   DUE ON    REMAINING      FINISHED DAY        OVERDUE   
0    15        0              11                            
1    37        2                                            
2    13        0              4                             
3    13        0              5                             
4    39        15                                           
5    17        0              16                            
6    24        9                                            
7    29        11                                           
8    18        2                                  overdue    <<       
9    18        7                                  overdue   


---------------------------------------------------------
DAY: 20

Processing task 8... 

ID   DUE ON    REMAINING      FINISHED DAY        OVERDUE   
0    15        0              11                            
1    37        2                                            
2    13        0              4                             
3    13        0              5                             
4    39        15                                           
5    17        0              16                            
6    24        9                                            
7    29        11                                           
8    18        1                                  overdue    <<       
9    18        7                                  overdue   


---------------------------------------------------------
DAY: 21

Processing task 8... done!

ID   DUE ON    REMAINING      FINISHED DAY        OVERDUE   
0    15        0              11                            
1    37        2                                            
2    13        0              4                             
3    13        0              5                             
4    39        15                                           
5    17        0              16                            
6    24        9                                            
7    29        11                                           
8    18        0              21                  overdue   
9    18        7                                  overdue    <<       


---------------------------------------------------------
DAY: 22

Processing task 9... 

ID   DUE ON    REMAINING      FINISHED DAY        OVERDUE   
0    15        0              11                            
1    37        2                                            
2    13        0              4                             
3    13        0              5                             
4    39        15                                           
5    17        0              16                            
6    24        9                                            
7    29        11                                           
8    18        0              21                  overdue   
9    18        6                                  overdue    <<       


---------------------------------------------------------
DAY: 23

Processing task 9... 

ID   DUE ON    REMAINING      FINISHED DAY        OVERDUE   
0    15        0              11                            
1    37        2                                            
2    13        0              4                             
3    13        0              5                             
4    39        15                                           
5    17        0              16                            
6    24        9                                            
7    29        11                                           
8    18        0              21                  overdue   
9    18        5                                  overdue    <<       


---------------------------------------------------------
DAY: 24

Processing task 9... 

ID   DUE ON    REMAINING      FINISHED DAY        OVERDUE   
0    15        0              11                            
1    37        2                                            
2    13        0              4                             
3    13        0              5                             
4    39        15                                           
5    17        0              16                            
6    24        9                                            
7    29        11                                           
8    18        0              21                  overdue   
9    18        4                                  overdue    <<       


---------------------------------------------------------
DAY: 25

Processing task 9... 

ID   DUE ON    REMAINING      FINISHED DAY        OVERDUE   
0    15        0              11                            
1    37        2                                            
2    13        0              4                             
3    13        0              5                             
4    39        15                                           
5    17        0              16                            
6    24        9                                  overdue   
7    29        11                                           
8    18        0              21                  overdue   
9    18        3                                  overdue    <<       


---------------------------------------------------------
DAY: 26

Processing task 9... 

ID   DUE ON    REMAINING      FINISHED DAY        OVERDUE   
0    15        0              11                            
1    37        2                                            
2    13        0              4                             
3    13        0              5                             
4    39        15                                           
5    17        0              16                            
6    24        9                                  overdue   
7    29        11                                           
8    18        0              21                  overdue   
9    18        2                                  overdue    <<       


---------------------------------------------------------
DAY: 27

Processing task 9... 

ID   DUE ON    REMAINING      FINISHED DAY        OVERDUE   
0    15        0              11                            
1    37        2                                            
2    13        0              4                             
3    13        0              5                             
4    39        15                                           
5    17        0              16                            
6    24        9                                  overdue   
7    29        11                                           
8    18        0              21                  overdue   
9    18        1                                  overdue    <<       


---------------------------------------------------------
DAY: 28

Processing task 9... done!

ID   DUE ON    REMAINING      FINISHED DAY        OVERDUE   
0    15        0              11                            
1    37        2                                            
2    13        0              4                             
3    13        0              5                             
4    39        15                                           
5    17        0              16                            
6    24        9                                  overdue    <<       
7    29        11                                           
8    18        0              21                  overdue   
9    18        0              28                  overdue   


---------------------------------------------------------
DAY: 29

Processing task 6... 

ID   DUE ON    REMAINING      FINISHED DAY        OVERDUE   
0    15        0              11                            
1    37        2                                            
2    13        0              4                             
3    13        0              5                             
4    39        15                                           
5    17        0              16                            
6    24        8                                  overdue    <<       
7    29        11                                           
8    18        0              21                  overdue   
9    18        0              28                  overdue   


---------------------------------------------------------
DAY: 30

Processing task 6... 

ID   DUE ON    REMAINING      FINISHED DAY        OVERDUE   
0    15        0              11                            
1    37        2                                            
2    13        0              4                             
3    13        0              5                             
4    39        15                                           
5    17        0              16                            
6    24        7                                  overdue    <<       
7    29        11                                 overdue   
8    18        0              21                  overdue   
9    18        0              28                  overdue   


---------------------------------------------------------
DAY: 31

Processing task 6... 

ID   DUE ON    REMAINING      FINISHED DAY        OVERDUE   
0    15        0              11                            
1    37        2                                            
2    13        0              4                             
3    13        0              5                             
4    39        15                                           
5    17        0              16                            
6    24        6                                  overdue    <<       
7    29        11                                 overdue   
8    18        0              21                  overdue   
9    18        0              28                  overdue   


---------------------------------------------------------
DAY: 32

Processing task 6... 

ID   DUE ON    REMAINING      FINISHED DAY        OVERDUE   
0    15        0              11                            
1    37        2                                            
2    13        0              4                             
3    13        0              5                             
4    39        15                                           
5    17        0              16                            
6    24        5                                  overdue    <<       
7    29        11                                 overdue   
8    18        0              21                  overdue   
9    18        0              28                  overdue   


---------------------------------------------------------
DAY: 33

Processing task 6... 

ID   DUE ON    REMAINING      FINISHED DAY        OVERDUE   
0    15        0              11                            
1    37        2                                            
2    13        0              4                             
3    13        0              5                             
4    39        15                                           
5    17        0              16                            
6    24        4                                  overdue    <<       
7    29        11                                 overdue   
8    18        0              21                  overdue   
9    18        0              28                  overdue   


---------------------------------------------------------
DAY: 34

Processing task 6... 

ID   DUE ON    REMAINING      FINISHED DAY        OVERDUE   
0    15        0              11                            
1    37        2                                            
2    13        0              4                             
3    13        0              5                             
4    39        15                                           
5    17        0              16                            
6    24        3                                  overdue    <<       
7    29        11                                 overdue   
8    18        0              21                  overdue   
9    18        0              28                  overdue   


---------------------------------------------------------
DAY: 35

Processing task 6... 

ID   DUE ON    REMAINING      FINISHED DAY        OVERDUE   
0    15        0              11                            
1    37        2                                            
2    13        0              4                             
3    13        0              5                             
4    39        15                                           
5    17        0              16                            
6    24        2                                  overdue    <<       
7    29        11                                 overdue   
8    18        0              21                  overdue   
9    18        0              28                  overdue   


---------------------------------------------------------
DAY: 36

Processing task 6... 

ID   DUE ON    REMAINING      FINISHED DAY        OVERDUE   
0    15        0              11                            
1    37        2                                            
2    13        0              4                             
3    13        0              5                             
4    39        15                                           
5    17        0              16                            
6    24        1                                  overdue    <<       
7    29        11                                 overdue   
8    18        0              21                  overdue   
9    18        0              28                  overdue   


---------------------------------------------------------
DAY: 37

Processing task 6... done!

ID   DUE ON    REMAINING      FINISHED DAY        OVERDUE   
0    15        0              11                            
1    37        2                                            
2    13        0              4                             
3    13        0              5                             
4    39        15                                           
5    17        0              16                            
6    24        0              37                  overdue   
7    29        11                                 overdue    <<       
8    18        0              21                  overdue   
9    18        0              28                  overdue   


---------------------------------------------------------
DAY: 38

Processing task 7... 

ID   DUE ON    REMAINING      FINISHED DAY        OVERDUE   
0    15        0              11                            
1    37        2                                  overdue   
2    13        0              4                             
3    13        0              5                             
4    39        15                                           
5    17        0              16                            
6    24        0              37                  overdue   
7    29        10                                 overdue    <<       
8    18        0              21                  overdue   
9    18        0              28                  overdue   


---------------------------------------------------------
DAY: 39

Processing task 7... 

ID   DUE ON    REMAINING      FINISHED DAY        OVERDUE   
0    15        0              11                            
1    37        2                                  overdue   
2    13        0              4                             
3    13        0              5                             
4    39        15                                           
5    17        0              16                            
6    24        0              37                  overdue   
7    29        9                                  overdue    <<       
8    18        0              21                  overdue   
9    18        0              28                  overdue   


---------------------------------------------------------
DAY: 40

Processing task 7... 

ID   DUE ON    REMAINING      FINISHED DAY        OVERDUE   
0    15        0              11                            
1    37        2                                  overdue   
2    13        0              4                             
3    13        0              5                             
4    39        15                                 overdue   
5    17        0              16                            
6    24        0              37                  overdue   
7    29        8                                  overdue    <<       
8    18        0              21                  overdue   
9    18        0              28                  overdue   


---------------------------------------------------------
DAY: 41

Processing task 7... 

ID   DUE ON    REMAINING      FINISHED DAY        OVERDUE   
0    15        0              11                            
1    37        2                                  overdue   
2    13        0              4                             
3    13        0              5                             
4    39        15                                 overdue   
5    17        0              16                            
6    24        0              37                  overdue   
7    29        7                                  overdue    <<       
8    18        0              21                  overdue   
9    18        0              28                  overdue   


---------------------------------------------------------
DAY: 42

Processing task 7... 

ID   DUE ON    REMAINING      FINISHED DAY        OVERDUE   
0    15        0              11                            
1    37        2                                  overdue   
2    13        0              4                             
3    13        0              5                             
4    39        15                                 overdue   
5    17        0              16                            
6    24        0              37                  overdue   
7    29        6                                  overdue    <<       
8    18        0              21                  overdue   
9    18        0              28                  overdue   


---------------------------------------------------------
DAY: 43

Processing task 7... 

ID   DUE ON    REMAINING      FINISHED DAY        OVERDUE   
0    15        0              11                            
1    37        2                                  overdue   
2    13        0              4                             
3    13        0              5                             
4    39        15                                 overdue   
5    17        0              16                            
6    24        0              37                  overdue   
7    29        5                                  overdue    <<       
8    18        0              21                  overdue   
9    18        0              28                  overdue   


---------------------------------------------------------
DAY: 44

Processing task 7... 

ID   DUE ON    REMAINING      FINISHED DAY        OVERDUE   
0    15        0              11                            
1    37        2                                  overdue   
2    13        0              4                             
3    13        0              5                             
4    39        15                                 overdue   
5    17        0              16                            
6    24        0              37                  overdue   
7    29        4                                  overdue    <<       
8    18        0              21                  overdue   
9    18        0              28                  overdue   


---------------------------------------------------------
DAY: 45

Processing task 7... 

ID   DUE ON    REMAINING      FINISHED DAY        OVERDUE   
0    15        0              11                            
1    37        2                                  overdue   
2    13        0              4                             
3    13        0              5                             
4    39        15                                 overdue   
5    17        0              16                            
6    24        0              37                  overdue   
7    29        3                                  overdue    <<       
8    18        0              21                  overdue   
9    18        0              28                  overdue   


---------------------------------------------------------
DAY: 46

Processing task 7... 

ID   DUE ON    REMAINING      FINISHED DAY        OVERDUE   
0    15        0              11                            
1    37        2                                  overdue   
2    13        0              4                             
3    13        0              5                             
4    39        15                                 overdue   
5    17        0              16                            
6    24        0              37                  overdue   
7    29        2                                  overdue    <<       
8    18        0              21                  overdue   
9    18        0              28                  overdue   


---------------------------------------------------------
DAY: 47

Processing task 7... 

ID   DUE ON    REMAINING      FINISHED DAY        OVERDUE   
0    15        0              11                            
1    37        2                                  overdue   
2    13        0              4                             
3    13        0              5                             
4    39        15                                 overdue   
5    17        0              16                            
6    24        0              37                  overdue   
7    29        1                                  overdue    <<       
8    18        0              21                  overdue   
9    18        0              28                  overdue   


---------------------------------------------------------
DAY: 48

Processing task 7... done!

ID   DUE ON    REMAINING      FINISHED DAY        OVERDUE   
0    15        0              11                            
1    37        2                                  overdue    <<       
2    13        0              4                             
3    13        0              5                             
4    39        15                                 overdue   
5    17        0              16                            
6    24        0              37                  overdue   
7    29        0              48                  overdue   
8    18        0              21                  overdue   
9    18        0              28                  overdue   


---------------------------------------------------------
DAY: 49

Processing task 1... 

ID   DUE ON    REMAINING      FINISHED DAY        OVERDUE   
0    15        0              11                            
1    37        1                                  overdue    <<       
2    13        0              4                             
3    13        0              5                             
4    39        15                                 overdue   
5    17        0              16                            
6    24        0              37                  overdue   
7    29        0              48                  overdue   
8    18        0              21                  overdue   
9    18        0              28                  overdue   


---------------------------------------------------------
DAY: 50

Processing task 1... done!

ID   DUE ON    REMAINING      FINISHED DAY        OVERDUE   
0    15        0              11                            
1    37        0              50                  overdue   
2    13        0              4                             
3    13        0              5                             
4    39        15                                 overdue    <<       
5    17        0              16                            
6    24        0              37                  overdue   
7    29        0              48                  overdue   
8    18        0              21                  overdue   
9    18        0              28                  overdue   


---------------------------------------------------------
DAY: 51

Processing task 4... 

ID   DUE ON    REMAINING      FINISHED DAY        OVERDUE   
0    15        0              11                            
1    37        0              50                  overdue   
2    13        0              4                             
3    13        0              5                             
4    39        14                                 overdue    <<       
5    17        0              16                            
6    24        0              37                  overdue   
7    29        0              48                  overdue   
8    18        0              21                  overdue   
9    18        0              28                  overdue   


---------------------------------------------------------
DAY: 52

Processing task 4... 

ID   DUE ON    REMAINING      FINISHED DAY        OVERDUE   
0    15        0              11                            
1    37        0              50                  overdue   
2    13        0              4                             
3    13        0              5                             
4    39        13                                 overdue    <<       
5    17        0              16                            
6    24        0              37                  overdue   
7    29        0              48                  overdue   
8    18        0              21                  overdue   
9    18        0              28                  overdue   


---------------------------------------------------------
DAY: 53

Processing task 4... 

ID   DUE ON    REMAINING      FINISHED DAY        OVERDUE   
0    15        0              11                            
1    37        0              50                  overdue   
2    13        0              4                             
3    13        0              5                             
4    39        12                                 overdue    <<       
5    17        0              16                            
6    24        0              37                  overdue   
7    29        0              48                  overdue   
8    18        0              21                  overdue   
9    18        0              28                  overdue   


---------------------------------------------------------
DAY: 54

Processing task 4... 

ID   DUE ON    REMAINING      FINISHED DAY        OVERDUE   
0    15        0              11                            
1    37        0              50                  overdue   
2    13        0              4                             
3    13        0              5                             
4    39        11                                 overdue    <<       
5    17        0              16                            
6    24        0              37                  overdue   
7    29        0              48                  overdue   
8    18        0              21                  overdue   
9    18        0              28                  overdue   


---------------------------------------------------------
DAY: 55

Processing task 4... 

ID   DUE ON    REMAINING      FINISHED DAY        OVERDUE   
0    15        0              11                            
1    37        0              50                  overdue   
2    13        0              4                             
3    13        0              5                             
4    39        10                                 overdue    <<       
5    17        0              16                            
6    24        0              37                  overdue   
7    29        0              48                  overdue   
8    18        0              21                  overdue   
9    18        0              28                  overdue   


---------------------------------------------------------
DAY: 56

Processing task 4... 

ID   DUE ON    REMAINING      FINISHED DAY        OVERDUE   
0    15        0              11                            
1    37        0              50                  overdue   
2    13        0              4                             
3    13        0              5                             
4    39        9                                  overdue    <<       
5    17        0              16                            
6    24        0              37                  overdue   
7    29        0              48                  overdue   
8    18        0              21                  overdue   
9    18        0              28                  overdue   


---------------------------------------------------------
DAY: 57

Processing task 4... 

ID   DUE ON    REMAINING      FINISHED DAY        OVERDUE   
0    15        0              11                            
1    37        0              50                  overdue   
2    13        0              4                             
3    13        0              5                             
4    39        8                                  overdue    <<       
5    17        0              16                            
6    24        0              37                  overdue   
7    29        0              48                  overdue   
8    18        0              21                  overdue   
9    18        0              28                  overdue   


---------------------------------------------------------
DAY: 58

Processing task 4... 

ID   DUE ON    REMAINING      FINISHED DAY        OVERDUE   
0    15        0              11                            
1    37        0              50                  overdue   
2    13        0              4                             
3    13        0              5                             
4    39        7                                  overdue    <<       
5    17        0              16                            
6    24        0              37                  overdue   
7    29        0              48                  overdue   
8    18        0              21                  overdue   
9    18        0              28                  overdue   


---------------------------------------------------------
DAY: 59

Processing task 4... 

ID   DUE ON    REMAINING      FINISHED DAY        OVERDUE   
0    15        0              11                            
1    37        0              50                  overdue   
2    13        0              4                             
3    13        0              5                             
4    39        6                                  overdue    <<       
5    17        0              16                            
6    24        0              37                  overdue   
7    29        0              48                  overdue   
8    18        0              21                  overdue   
9    18        0              28                  overdue   


---------------------------------------------------------
DAY: 60

Processing task 4... 

ID   DUE ON    REMAINING      FINISHED DAY        OVERDUE   
0    15        0              11                            
1    37        0              50                  overdue   
2    13        0              4                             
3    13        0              5                             
4    39        5                                  overdue    <<       
5    17        0              16                            
6    24        0              37                  overdue   
7    29        0              48                  overdue   
8    18        0              21                  overdue   
9    18        0              28                  overdue   


---------------------------------------------------------
DAY: 61

Processing task 4... 

ID   DUE ON    REMAINING      FINISHED DAY        OVERDUE   
0    15        0              11                            
1    37        0              50                  overdue   
2    13        0              4                             
3    13        0              5                             
4    39        4                                  overdue    <<       
5    17        0              16                            
6    24        0              37                  overdue   
7    29        0              48                  overdue   
8    18        0              21                  overdue   
9    18        0              28                  overdue   


---------------------------------------------------------
DAY: 62

Processing task 4... 

ID   DUE ON    REMAINING      FINISHED DAY        OVERDUE   
0    15        0              11                            
1    37        0              50                  overdue   
2    13        0              4                             
3    13        0              5                             
4    39        3                                  overdue    <<       
5    17        0              16                            
6    24        0              37                  overdue   
7    29        0              48                  overdue   
8    18        0              21                  overdue   
9    18        0              28                  overdue   


---------------------------------------------------------
DAY: 63

Processing task 4... 

ID   DUE ON    REMAINING      FINISHED DAY        OVERDUE   
0    15        0              11                            
1    37        0              50                  overdue   
2    13        0              4                             
3    13        0              5                             
4    39        2                                  overdue    <<       
5    17        0              16                            
6    24        0              37                  overdue   
7    29        0              48                  overdue   
8    18        0              21                  overdue   
9    18        0              28                  overdue   


---------------------------------------------------------
DAY: 64

Processing task 4... 

ID   DUE ON    REMAINING      FINISHED DAY        OVERDUE   
0    15        0              11                            
1    37        0              50                  overdue   
2    13        0              4                             
3    13        0              5                             
4    39        1                                  overdue    <<       
5    17        0              16                            
6    24        0              37                  overdue   
7    29        0              48                  overdue   
8    18        0              21                  overdue   
9    18        0              28                  overdue   


---------------------------------------------------------
DAY: 65

Processing task 4... done!

ID   DUE ON    REMAINING      FINISHED DAY        OVERDUE   
0    15        0              11                            
1    37        0              50                  overdue   
2    13        0              4                             
3    13        0              5                             
4    39        0              65                  overdue    <<       
5    17        0              16                            
6    24        0              37                  overdue   
7    29        0              48                  overdue   
8    18        0              21                  overdue   
9    18        0              28                  overdue   

