^C:\USERS\SVC-STUDENT\DESKTOP\SORTINGLAB\SORTINGLAB\DISEASE_INDICATORS.CPP
/c /ZI /nologo /W3 /WX- /diagnostics:classic /sdl /Od /Oy- /D _MBCS /Gm /EHsc /RTC1 /MDd /GS /fp:precise /permissive- /Zc:wchar_t /Zc:forScope /Zc:inline /Fo"DEBUG\\" /Fd"DEBUG\VC141.PDB" /Gd /TP /analyze- C:\USERS\SVC-STUDENT\DESKTOP\SORTINGLAB\SORTINGLAB\DISEASE_INDICATORS.CPP
^E:\CS 250\WEEK 7\SORTINGLAB\SORTINGLAB\DISEASE_INDICATORS.CPP
/c /ZI /nologo /W3 /WX- /diagnostics:classic /sdl /Od /Oy- /D _MBCS /Gm /EHsc /RTC1 /MDd /GS /fp:precise /permissive- /Zc:wchar_t /Zc:forScope /Zc:inline /Fo"DEBUG\\" /Fd"DEBUG\VC141.PDB" /Gd /TP /analyze- E:\CS 250\WEEK 7\SORTINGLAB\SORTINGLAB\DISEASE_INDICATORS.CPP
