^E:\CS 250\WEEK 13\FRANKLINOVERTON2PROJECT4\CUTEST\TESTERBASE.CPP|E:\CS 250\WEEK 13\FRANKLINOVERTON2PROJECT4\MAIN.CPP
E:\CS 250\WEEK 13\FRANKLINOVERTON2PROJECT4\FRANKLINOVERTON2PROJECT4\DEBUG\VC141.PDB
E:\CS 250\WEEK 13\FRANKLINOVERTON2PROJECT4\FRANKLINOVERTON2PROJECT4\DEBUG\VC141.IDB
E:\CS 250\WEEK 13\FRANKLINOVERTON2PROJECT4\FRANKLINOVERTON2PROJECT4\DEBUG\TESTERBASE.OBJ
E:\CS 250\WEEK 13\FRANKLINOVERTON2PROJECT4\FRANKLINOVERTON2PROJECT4\DEBUG\MAIN.OBJ
^E:\CS 250\WEEK 13\FRANKLINOVERTON2PROJECT4\CUTEST\TESTERBASE.CPP
E:\CS 250\WEEK 13\FRANKLINOVERTON2PROJECT4\FRANKLINOVERTON2PROJECT4\DEBUG\VC141.PDB
^E:\CS 250\WEEK 13\FRANKLINOVERTON2PROJECT4\MAIN.CPP
E:\CS 250\WEEK 13\FRANKLINOVERTON2PROJECT4\FRANKLINOVERTON2PROJECT4\DEBUG\VC141.PDB
E:\CS 250\WEEK 13\FRANKLINOVERTON2PROJECT4\FRANKLINOVERTON2PROJECT4\DEBUG\VC141.IDB
E:\CS 250\WEEK 13\FRANKLINOVERTON2PROJECT4\FRANKLINOVERTON2PROJECT4\DEBUG\MAIN.OBJ
